<svg xmlns="http://www.w3.org/2000/svg" viewBox="0 0 177 200">
  <g>
    <path d="M4.6 99.2L3.2 101l1.4 1.8c31.6 41.4 74.3 43.5 82.5 43.5H89c8.2 0 50.9-2.1 82.5-43.5l1.4-1.8-1.4-1.8c-31.4-41-73.9-43.4-82.1-43.5-1-.1-1.9-.1-2.7-.1-1.8 0-3.7.1-5.6.4-13.9 1.1-49.4 7.7-76.5 43.2zm110.7 36.7c10.5-8.6 16.7-21.3 16.7-35 0-13.6-6-26.2-16.4-34.8 14.7 4.7 33.7 14.5 49.9 34.9-16.3 20.4-35.4 30.2-50.2 34.9zm-73.8-35.1c0 12.9 5.5 25 15 33.6-13.5-4.9-30.9-14.6-45.9-33.5 14.9-18.8 32.2-28.4 45.6-33.4-9.3 8.5-14.7 20.6-14.7 33.3zm5.8 0c0-19.8 14.8-36.6 34.4-39.1 2.4-.2 4.2-.2 5.3-.2h2.2c20.7 1.3 36.9 18.6 36.9 39.3 0 21.7-17.7 39.4-39.4 39.4s-39.4-17.6-39.4-39.4z"/>
    <path d="M86.7 116.9c8.8 0 16-7.2 16-16s-7.2-16-16-16-16 7.2-16 16 7.2 16 16 16zm0-26.3c5.6 0 10.2 4.6 10.2 10.2S92.3 111 86.7 111s-10.2-4.6-10.2-10.2 4.6-10.2 10.2-10.2z"/>
  </g>
</svg>